…
``` r
#Code chunk to create the all_reviews_category variable 
steam_games_modified = (steam_games %>% #Save the result in another object to keep the original data unchanged
  bind_cols(., #Bind a new column to the original dataset
            (str_split(steam_games$all_reviews, pattern = ",", simplify = TRUE) %>% #separate the content of all_reviews using commas
               as_tibble()%>% #Convert the matrix output to a tibble
               select(V1)) %>% #Select only the first column that stores the category of the overall review
               rename( all_reviews_category= V1)) #Rename the variable to a more informative name
         ) 

#See the result
steam_games_modified %>% select(id,all_reviews,all_reviews_category) #I just selected 3 variables so that you can see that it was done correctly
```

    ## # A tibble: 40,833 × 3
    ##       id all_reviews                                          all_reviews_categ…
    ##    <dbl> <chr>                                                <chr>             
    ##  1     1 Very Positive,(42,550),- 92% of the 42,550 user rev… Very Positive     
    ##  2     2 Mixed,(836,608),- 49% of the 836,608 user reviews f… Mixed             
    ##  3     3 Mostly Positive,(7,030),- 71% of the 7,030 user rev… Mostly Positive   
    ##  4     4 Mixed,(167,115),- 61% of the 167,115 user reviews f… Mixed             
    ##  5     5 Mostly Positive,(11,481),- 74% of the 11,481 user r… Mostly Positive   
    ##  6     6 NaN                                                  NaN               
    ##  7     7 Very Positive,(9,645),- 92% of the 9,645 user revie… Very Positive     
    ##  8     8 Very Positive,(23,763),- 91% of the 23,763 user rev… Very Positive     
    ##  9     9 Very Positive,(12,127),- 85% of the 12,127 user rev… Very Positive     
    ## 10    10 Mixed,(904),- 44% of the 904 user reviews for this … Mixed             
    ## # … with 40,823 more rows
…
